[
  {
    "id": 0,
    "name": "root",
    "password": "root",
    "roles": ""
  },
  {
    "id": 1,
    "name": "user1",
    "password": "user1",
    "roles": ""
  },
  {
    "id": 2,
    "name": "user2",
    "password": "user2",
    "roles": ""
  },
  {
    "id": 3,
    "name": "user3",
    "password": "user3",
    "roles": ""
  }
]